{
    "NAT1-03": ["NAT1-03_5","NAT1-03_4","NAT1-03_3"],
    "HSF1-01": ["HSF1-01_0","HSF1-01_1","HSF1-01_2"],
    "NOR1-05": ["NOR1-05_4","NOR1-05_5","NOR1-05_6"],
    "TIP1-01": ["TIP1-01_0","TIP1-01_1","TIP1-01_2"],
    "SAF1-03": ["SAF1-03_3"],
    "RMF1-01": ["RMF1-01_0","RMF1-01_1","RMF1-01_2"],
    "ENG1-03": ["ENG1-03_4","ENG1-03_3"],
    "ELE1-01": ["ELE1-01_0","ELE1-01_1","ELE1-01_2"],
    "DHV1-01": ["DHV1-01_0","DHV1-01_1"],
    "KRO1-03": ["KRO1-03_3","KRO1-03_4","KRO1-03_5"],
    "BUA2-01": ["BUA2-01_0","BUA2-01_1","BUA2-01_2"],
    "HEA2-01": ["HEA2-01_0","HEA2-01_1","HEA2-01_2"],
    "MAT5-02": ["MAT5-02_1","MAT5-02_0"],
    "MAT1-04": ["MAT1-04_3","MAT1-04_4","MAT1-04_5"],
    "ROM3-01": ["ROM3-01_0","ROM3-01_1","ROM3-01_2","ROM3-01_3","ROM3-01_4"],
    "KKM1-01": ["KKM1-01_1","KKM1-01_2","KKM1-01_0"],
    "TNF1-01": ["TNF1-01_1"],
    "MIN1-01": ["MIN1-01_0","MIN1-01_1"],
    "BIO1-01": ["BIO1-01_0"],
    "HIS1-02": ["HIS1-02_0","HIS1-02_1","HIS1-02_2"],
    "SSA1-01": ["SSA1-01_0","SSA1-01_1","SSA1-01_2"],
    "MFL1-01": ["MFL1-01_0"],
    "ENG4-01": ["ENG4-01_0","ENG4-01_1","ENG4-01_2"],
    "MAT3-01": ["MAT3-01_0","MAT3-01_1"],
    "MAT4-01": ["MAT4-01_0","MAT4-01_1"],
    "BUA3-01": ["BUA3-01_0"],
    "HEA3-01": ["HEA3-01_0"],
    "RFG2-01": ["RFG2-01_0","RFG2-01_1","RFG2-01_2"],
    "RLV2-01": ["RLV2-01_0","RLV2-01_1","RLV2-01_2"],
    "SSS2-01": ["SSS2-01_0","SSS2-01_1","SSS2-01_2"],
    "TRL2-02": ["TRL2-02_1","TRL2-02_0"],
    "ISF2-01": ["ISF2-01_0","ISF2-01_1","ISF2-01_2"],
    "BYG2-01": ["BYG2-01_0","BYG2-01_1"],
    "SFS1-04": ["SFS1-04_4","SFS1-04_5","SFS1-04_6"],
    "BET3-01": ["BET3-01_0"],
    "MUR3-01": ["MUR3-01_0"],
    "STI3-01": ["STI3-01_0"],
    "TMF3-01": ["TMF3-01_0"],
    "BAT1-01": ["BAT1-01_0","BAT1-01_1"],
    "SAS1-04": ["SAS1-04_3","SAS1-04_4","SAS1-04_5","SAS1-04_6","SAS1-04_7","SAS1-04_8","SAS1-04_9","SAS1-04_10","SAS1-04_11"],
    "FSP1-01": ["FSP1-01_0","FSP1-01_1"],
    "BRH3-01": ["BRH3-01_0"],
    "BRT2-01": ["BRT2-01_0","BRT2-01_1","BRT2-01_2"]
}